<?xml version="1.0" encoding="UTF-8"?>
<svg xmlns:svg="http://www.w3.org/2000/svg" xmlns="http://www.w3.org/2000/svg" width="166.28125" height="20" viewBox="0 0 166.28125 20">
    <rect fill="#2976B7" width="45.03125" height="20" x="0" y="0" />
    <rect fill="#174168" width="121.25" height="20" x="45.03125" y="0" />
    <g transform="translate(5, 14.3125)"><path transform="translate(0.000000,0)" d=" M 8.593750,-11.765625  L 7.218750,-11.765625  L 7.218750,-7.312500  L 6.656250,-8.140625  C 6.218750,-8.500000 5.328125,-8.703125 4.625000,-8.703125  C 2.437500,-8.703125 0.484375,-7.250000 0.484375,-4.109375  C 0.484375,-1.625000 1.859375,0.218750 4.343750,0.218750  C 5.203125,0.218750 6.093750,-0.046875 6.578125,-0.453125  L 7.218750,-1.359375  L 7.218750,0.000000  L 8.593750,0.000000  L 8.593750,-11.765625  M 4.546875,-0.828125  C 2.843750,-0.828125 1.984375,-2.359375 1.984375,-4.265625  C 1.984375,-6.500000 3.140625,-7.640625 4.625000,-7.640625  C 5.843750,-7.640625 7.218750,-6.812500 7.218750,-4.625000  L 7.218750,-4.156250  C 7.218750,-1.734375 5.953125,-0.828125 4.546875,-0.828125 " fill="white" /><path transform="translate(9.843750,0)" d=" M 4.687500,-8.703125  C 1.812500,-8.703125 0.484375,-6.640625 0.484375,-4.234375  C 0.484375,-1.859375 1.812500,0.218750 4.687500,0.218750  C 7.562500,0.218750 8.890625,-1.859375 8.890625,-4.234375  C 8.890625,-6.640625 7.562500,-8.703125 4.687500,-8.703125  M 4.687500,-0.828125  C 2.968750,-0.828125 1.984375,-2.250000 1.984375,-4.234375  C 1.984375,-6.234375 2.968750,-7.640625 4.687500,-7.640625  C 6.406250,-7.640625 7.390625,-6.234375 7.390625,-4.234375  C 7.390625,-2.250000 6.406250,-0.828125 4.687500,-0.828125 " fill="white" /><path transform="translate(19.218750,0)" d=" M 4.468750,-8.703125  C 2.343750,-8.703125 0.484375,-7.093750 0.484375,-4.218750  C 0.484375,-1.125000 2.109375,0.218750 4.250000,0.218750  C 6.140625,0.218750 7.546875,-0.734375 7.968750,-2.703125  L 6.531250,-2.703125  C 6.234375,-1.468750 5.453125,-0.828125 4.343750,-0.828125  C 3.078125,-0.828125 1.984375,-1.859375 1.984375,-4.312500  C 1.984375,-6.609375 3.109375,-7.640625 4.437500,-7.640625  C 5.562500,-7.640625 6.296875,-6.984375 6.609375,-5.625000  L 8.046875,-5.625000  C 7.796875,-7.484375 6.500000,-8.703125 4.468750,-8.703125 " fill="white" /><path transform="translate(27.687500,0)" d=" M 3.640625,-8.703125  C 1.906250,-8.703125 0.718750,-7.781250 0.718750,-6.218750  C 0.718750,-4.734375 1.937500,-4.109375 3.453125,-3.703125  C 4.875000,-3.312500 5.453125,-2.875000 5.453125,-2.062500  C 5.453125,-1.250000 4.718750,-0.828125 3.812500,-0.828125  C 2.828125,-0.828125 2.046875,-1.265625 1.828125,-2.500000  L 0.390625,-2.500000  C 0.640625,-0.578125 1.968750,0.218750 3.718750,0.218750  C 5.500000,0.218750 6.859375,-0.578125 6.859375,-2.171875  C 6.859375,-3.609375 5.937500,-4.390625 3.984375,-4.890625  C 2.828125,-5.203125 2.125000,-5.531250 2.125000,-6.390625  C 2.125000,-7.125000 2.578125,-7.640625 3.531250,-7.640625  C 4.531250,-7.640625 5.140625,-7.062500 5.328125,-6.062500  L 6.765625,-6.062500  C 6.593750,-7.609375 5.546875,-8.703125 3.640625,-8.703125 " fill="white" /></g>
    <g transform="translate(50.03125, 14.3125)"><path transform="translate(0.000000,0)" d=" M 7.484375,-2.859375  L 8.421875,0.000000  L 11.546875,0.000000  L 7.562500,-11.046875  L 4.046875,-11.046875  L 0.062500,0.000000  L 3.125000,0.000000  L 4.046875,-2.859375  L 7.484375,-2.859375  M 5.781250,-8.500000  L 6.796875,-5.109375  L 4.750000,-5.109375  L 5.781250,-8.500000 " fill="white" /><path transform="translate(11.312500,0)" d=" M 7.171875,-10.953125  C 6.578125,-11.031250 6.125000,-11.046875 5.437500,-11.046875  L 1.281250,-11.046875  L 1.281250,0.000000  L 4.156250,0.000000  L 4.156250,-3.875000  L 5.437500,-3.875000  C 6.125000,-3.875000 6.578125,-3.890625 7.171875,-3.953125  C 8.765625,-4.140625 10.218750,-5.281250 10.218750,-7.453125  C 10.218750,-9.625000 8.765625,-10.765625 7.171875,-10.953125  M 6.046875,-6.125000  C 5.843750,-6.109375 5.578125,-6.109375 5.281250,-6.109375  L 4.156250,-6.109375  L 4.156250,-8.796875  L 5.281250,-8.796875  C 5.578125,-8.796875 5.843750,-8.796875 6.046875,-8.781250  C 6.781250,-8.718750 7.218750,-8.281250 7.218750,-7.453125  C 7.218750,-6.625000 6.781250,-6.187500 6.046875,-6.125000 " fill="white" /><path transform="translate(21.609375,0)" d=" M 4.156250,0.000000  L 4.156250,-11.046875  L 1.281250,-11.046875  L 1.281250,0.000000  L 4.156250,0.000000 " fill="white" /><path transform="translate(26.640625,0)" d="" fill="white" /><path transform="translate(29.453125,0)" d=" M 9.890625,-2.687500  C 9.734375,-4.015625 9.312500,-4.859375 8.156250,-5.281250  C 9.625000,-5.718750 10.390625,-6.640625 10.390625,-8.031250  C 10.390625,-9.984375 8.984375,-10.765625 7.390625,-10.953125  C 6.796875,-11.031250 6.359375,-11.046875 5.656250,-11.046875  L 1.281250,-11.046875  L 1.281250,0.000000  L 4.156250,0.000000  L 4.156250,-4.187500  L 4.796875,-4.187500  C 5.125000,-4.187500 5.390625,-4.187500 5.718750,-4.171875  C 6.453125,-4.125000 6.921875,-3.421875 7.078125,-2.203125  C 7.171875,-1.421875 7.328125,-0.781250 7.578125,0.000000  L 10.718750,0.000000  C 10.281250,-0.656250 10.031250,-1.437500 9.890625,-2.687500  M 4.156250,-6.265625  L 4.156250,-8.796875  L 5.281250,-8.796875  C 5.578125,-8.796875 5.843750,-8.796875 6.046875,-8.781250  C 6.781250,-8.718750 7.375000,-8.468750 7.375000,-7.531250  C 7.375000,-6.609375 6.703125,-6.359375 5.968750,-6.281250  C 5.765625,-6.265625 5.500000,-6.265625 5.203125,-6.265625  L 4.156250,-6.265625 " fill="white" /><path transform="translate(40.359375,0)" d=" M 9.234375,-4.390625  C 9.234375,-6.593750 7.796875,-8.765625 4.937500,-8.765625  C 2.093750,-8.765625 0.390625,-6.734375 0.390625,-4.234375  C 0.390625,-1.234375 2.343750,0.218750 4.781250,0.218750  C 6.968750,0.218750 8.578125,-0.859375 9.078125,-2.796875  L 6.234375,-2.796875  C 6.125000,-2.140625 5.625000,-1.734375 4.812500,-1.734375  C 4.000000,-1.734375 3.375000,-2.125000 3.234375,-3.546875  L 9.187500,-3.546875  C 9.218750,-3.843750 9.234375,-4.125000 9.234375,-4.390625  M 4.796875,-6.812500  C 5.562500,-6.812500 6.062500,-6.312500 6.218750,-5.312500  L 3.328125,-5.312500  C 3.515625,-6.375000 4.046875,-6.812500 4.796875,-6.812500 " fill="white" /><path transform="translate(49.968750,0)" d=" M 4.109375,-9.187500  C 4.187500,-9.937500 4.937500,-10.234375 5.984375,-10.062500  L 5.984375,-11.937500  C 5.703125,-12.015625 5.359375,-12.062500 5.031250,-12.062500  C 2.390625,-12.062500 1.359375,-11.078125 1.234375,-9.468750  C 1.218750,-9.187500 1.218750,-8.796875 1.218750,-8.546875  L 1.218750,-8.484375  L 0.296875,-8.484375  L 0.296875,-6.687500  L 1.218750,-6.687500  L 1.218750,0.000000  L 4.093750,0.000000  L 4.093750,-6.687500  L 5.843750,-6.687500  L 5.843750,-8.484375  L 4.093750,-8.484375  L 4.093750,-8.546875  C 4.093750,-8.750000 4.093750,-8.953125 4.109375,-9.187500 " fill="white" /><path transform="translate(56.015625,0)" d=" M 9.234375,-4.390625  C 9.234375,-6.593750 7.796875,-8.765625 4.937500,-8.765625  C 2.093750,-8.765625 0.390625,-6.734375 0.390625,-4.234375  C 0.390625,-1.234375 2.343750,0.218750 4.781250,0.218750  C 6.968750,0.218750 8.578125,-0.859375 9.078125,-2.796875  L 6.234375,-2.796875  C 6.125000,-2.140625 5.625000,-1.734375 4.812500,-1.734375  C 4.000000,-1.734375 3.375000,-2.125000 3.234375,-3.546875  L 9.187500,-3.546875  C 9.218750,-3.843750 9.234375,-4.125000 9.234375,-4.390625  M 4.796875,-6.812500  C 5.562500,-6.812500 6.062500,-6.312500 6.218750,-5.312500  L 3.328125,-5.312500  C 3.515625,-6.375000 4.046875,-6.812500 4.796875,-6.812500 " fill="white" /><path transform="translate(65.625000,0)" d=" M 6.031250,-8.765625  C 5.484375,-8.765625 4.812500,-8.531250 4.359375,-8.015625  L 3.750000,-6.812500  L 3.750000,-8.546875  L 0.859375,-8.546875  L 0.859375,0.000000  L 3.750000,0.000000  L 3.750000,-3.140625  C 3.750000,-5.718750 4.531250,-6.515625 6.687500,-6.375000  L 6.687500,-8.718750  C 6.484375,-8.750000 6.296875,-8.765625 6.031250,-8.765625 " fill="white" /><path transform="translate(72.343750,0)" d=" M 9.234375,-4.390625  C 9.234375,-6.593750 7.796875,-8.765625 4.937500,-8.765625  C 2.093750,-8.765625 0.390625,-6.734375 0.390625,-4.234375  C 0.390625,-1.234375 2.343750,0.218750 4.781250,0.218750  C 6.968750,0.218750 8.578125,-0.859375 9.078125,-2.796875  L 6.234375,-2.796875  C 6.125000,-2.140625 5.625000,-1.734375 4.812500,-1.734375  C 4.000000,-1.734375 3.375000,-2.125000 3.234375,-3.546875  L 9.187500,-3.546875  C 9.218750,-3.843750 9.234375,-4.125000 9.234375,-4.390625  M 4.796875,-6.812500  C 5.562500,-6.812500 6.062500,-6.312500 6.218750,-5.312500  L 3.328125,-5.312500  C 3.515625,-6.375000 4.046875,-6.812500 4.796875,-6.812500 " fill="white" /><path transform="translate(81.953125,0)" d=" M 9.453125,-6.453125  C 9.234375,-7.937500 8.187500,-8.765625 6.437500,-8.765625  C 5.640625,-8.765625 5.046875,-8.593750 4.515625,-8.265625  L 3.750000,-7.218750  L 3.750000,-8.546875  L 0.859375,-8.546875  L 0.859375,0.000000  L 3.750000,0.000000  L 3.750000,-4.031250  C 3.750000,-5.968750 4.375000,-6.812500 5.250000,-6.812500  C 6.109375,-6.812500 6.562500,-6.343750 6.625000,-5.515625  C 6.656250,-5.093750 6.656250,-4.625000 6.656250,-4.359375  L 6.656250,0.000000  L 9.531250,0.000000  L 9.531250,-4.828125  C 9.531250,-5.515625 9.515625,-6.015625 9.453125,-6.453125 " fill="white" /><path transform="translate(92.250000,0)" d=" M 4.875000,-8.765625  C 2.375000,-8.765625 0.390625,-7.125000 0.390625,-4.171875  C 0.390625,-1.359375 2.234375,0.218750 4.687500,0.218750  C 7.015625,0.218750 8.718750,-0.921875 9.046875,-3.140625  L 6.203125,-3.140625  C 6.046875,-2.203125 5.500000,-1.734375 4.843750,-1.734375  C 3.875000,-1.734375 3.328125,-2.531250 3.328125,-4.359375  C 3.328125,-6.000000 3.859375,-6.812500 4.812500,-6.812500  C 5.531250,-6.812500 6.093750,-6.406250 6.218750,-5.281250  L 9.015625,-5.281250  C 8.921875,-7.203125 7.390625,-8.765625 4.875000,-8.765625 " fill="white" /><path transform="translate(101.640625,0)" d=" M 9.234375,-4.390625  C 9.234375,-6.593750 7.796875,-8.765625 4.937500,-8.765625  C 2.093750,-8.765625 0.390625,-6.734375 0.390625,-4.234375  C 0.390625,-1.234375 2.343750,0.218750 4.781250,0.218750  C 6.968750,0.218750 8.578125,-0.859375 9.078125,-2.796875  L 6.234375,-2.796875  C 6.125000,-2.140625 5.625000,-1.734375 4.812500,-1.734375  C 4.000000,-1.734375 3.375000,-2.125000 3.234375,-3.546875  L 9.187500,-3.546875  C 9.218750,-3.843750 9.234375,-4.125000 9.234375,-4.390625  M 4.796875,-6.812500  C 5.562500,-6.812500 6.062500,-6.312500 6.218750,-5.312500  L 3.328125,-5.312500  C 3.515625,-6.375000 4.046875,-6.812500 4.796875,-6.812500 " fill="white" /></g>
</svg>